Proyecto de reglas de asociación - Consumo
…
consumo_ds %>% filter( ProductoComprado == "NONE"  )

## # A tibble: 786 x 4
##    Fecha      Hora     IDComprador ProductoComprado
##    <date>     <time>         <dbl> <chr>           
##  1 2016-10-30 10:27:21          11 NONE            
##  2 2016-10-30 10:34:36          15 NONE            
##  3 2016-10-30 10:34:36          15 NONE            
##  4 2016-10-30 11:05:30          29 NONE            
##  5 2016-10-30 11:37:10          37 NONE            
##  6 2016-10-30 11:55:51          40 NONE            
##  7 2016-10-30 13:02:04          59 NONE            
##  8 2016-10-30 13:37:25          65 NONE            
##  9 2016-10-30 13:46:48          67 NONE            
## 10 2016-10-30 14:32:26          75 NONE            
## # ... with 776 more rows
…
## # A tibble: 2 x 2
##   año   Num_ventas
##   <chr>      <int>
## 1 2016        8561
## 2 2017       12732

#Agrupo por dia y calculo el numero de ventas acumuladas por dias.
ventas_dia <- consumo_ds2 %>%
    group_by(dia) %>%
    arrange(dia) %>%
    summarise("Num_ventas" = n())

ventas_dia

## # A tibble: 31 x 2
##    dia   Num_ventas
##    <chr>      <int>
##  1 01           643
##  2 02           618
##  3 03           888
##  4 04          1092
##  5 05           955
##  6 06           769
##  7 07           767
##  8 08           720
##  9 09           617
## 10 10           707
## # ... with 21 more rows
…
